id,name,model_id:id,group_id:id,perm_read,perm_write,perm_create,perm_unlink
access_crm_level_manager,crm.level.manager,model_crm_level,sales_team.group_sale_manager,1,1,1,1
access_crm_company_size_manager,crm.company.size.manager,model_crm_company_size,sales_team.group_sale_manager,1,1,1,1
access_crm_department_manager,crm.department.manager,model_crm_department,sales_team.group_sale_manager,1,1,1,1
access_crm_bussiness_manager,crm.business.manager,model_crm_business_unit,sales_team.group_sale_manager,1,1,1,1
access_crm_type_manager,crm.type.manager,model_crm_type,sales_team.group_sale_manager,1,1,1,1
access_res_partner_industry_manager,res.partner.industry.manager,base.model_res_partner_industry,sales_team.group_sale_manager,1,1,1,1
access_branch_type_own,branch.type.own.docs,branch_enhancement.model_branch_type,sales_team.group_sale_manager,1,1,1,1
access_branch_own_docs,res.branch.own.docs,base_branch_company.model_res_branch,sales_team.group_sale_salesman,1,0,0,0
access_branch_type_own_docs,res.branch.type.own.docs,branch_enhancement.model_branch_type,sales_team.group_sale_salesman,1,0,0,0
access_res_partner_own_docs,res.partner.own.docs,base.model_res_partner,sales_team.group_sale_salesman,1,1,1,0
access_product_template,product.template.own.docs,product.model_product_template,sales_team.group_sale_salesman,1,1,1,0
access_stock_move,stock.move.own.docs,stock.model_stock_move,sales_team.group_sale_salesman,1,1,1,0
access_pricelist_own,product.pricelist.own.docs,product.model_product_pricelist,sales_team.group_sale_salesman,1,1,0,0
access_res_partner_all_docs,res.partner.all.docs,base.model_res_partner,sales_team.group_sale_salesman_all_leads,1,1,1,0
access_res_partner_all_docs_list,res.partner.all.docs.list,account.model_account_move,sales_team.group_sale_salesman_all_leads,1,1,1,0
,,,,,,,
,,,,,,,
access_warehouse_saleman,access warehouse saleman,stock.model_stock_warehouse_orderpoint,sales_team.group_sale_salesman,1,1,1,0
,,,,,,,
,,,,,,,
access_crm_activity_report_manager,crm.level.manager,model_crm_activity_report1,sales_team.group_sale_manager,1,1,1,1
access_crm_activity_report_user,User Access,model_crm_activity_report1,base.group_user,1,1,1,1
access_sale_man_all_crm_activity,Sale Man All Access,model_crm_activity_report1,sales_team.group_sale_salesman_all_leads,1,1,1,0
access_saleman_crm_activity,Sale Man  Access,model_crm_activity_report1,sales_team.group_sale_salesman,1,1,1,0
,,,,,,,
access_vendor_info,Vendor Information User Access,model_vendor_info,base.group_user,1,1,1,1
